data_1_9_semi_final/data_1_9_semi_final.sim/sim_1/behav/xsim/simulate.log
Time resolution is 1 ps
 Block Memory Generator module loading initial data...
 Block Memory Generator data initialization complete.
Block Memory Generator module source_data_1_9_tb.uut.hanning.bram_inst.inst.\native_mem_module.blk_mem_gen_v8_4_6_inst  is using a behavioral model for simulation which will not precisely model memory collision behavior.
Time =                    0, clk = 0, rst_n = 0, data = 0000
Time =                 5000, clk = 1, rst_n = 0, data = 0000
Time =                10000, clk = 0, rst_n = 0, data = 0000
Time =                15000, clk = 1, rst_n = 0, data = 0000
Time =                20000, clk = 0, rst_n = 1, data = 0000
Time =                25000, clk = 1, rst_n = 1, data = 0001
Time =                30000, clk = 0, rst_n = 1, data = 0001
Time =                35000, clk = 1, rst_n = 1, data = 0001
Time =                40000, clk = 0, rst_n = 1, data = 0001
Time =                45000, clk = 1, rst_n = 1, data = 0001
Time =                50000, clk = 0, rst_n = 1, data = 0001
Time =                55000, clk = 1, rst_n = 1, data = 0005
Time =                60000, clk = 0, rst_n = 1, data = 0005
Time =                65000, clk = 1, rst_n = 1, data = 000b
Time =                70000, clk = 0, rst_n = 1, data = 000b
Time =                75000, clk = 1, rst_n = 1, data = 0014
Time =                80000, clk = 0, rst_n = 1, data = 0014
Time =                85000, clk = 1, rst_n = 1, data = 001f
Time =                90000, clk = 0, rst_n = 1, data = 001f
Time =                95000, clk = 1, rst_n = 1, data = 002c
Time =               100000, clk = 0, rst_n = 1, data = 002c
Time =               105000, clk = 1, rst_n = 1, data = 003c
Time =               110000, clk = 0, rst_n = 1, data = 003c
Time =               115000, clk = 1, rst_n = 1, data = 004f
Time =               120000, clk = 0, rst_n = 1, data = 004f
Time =               125000, clk = 1, rst_n = 1, data = 0063
Time =               130000, clk = 0, rst_n = 1, data = 0063
Time =               135000, clk = 1, rst_n = 1, data = 007b
Time =               140000, clk = 0, rst_n = 1, data = 007b
Time =               145000, clk = 1, rst_n = 1, data = 0094
Time =               150000, clk = 0, rst_n = 1, data = 0094
Time =               155000, clk = 1, rst_n = 1, data = 00b1
Time =               160000, clk = 0, rst_n = 1, data = 00b1
Time =               165000, clk = 1, rst_n = 1, data = 00cf
Time =               170000, clk = 0, rst_n = 1, data = 00cf
Time =               175000, clk = 1, rst_n = 1, data = 00f0
Time =               180000, clk = 0, rst_n = 1, data = 00f0
Time =               185000, clk = 1, rst_n = 1, data = 0114
Time =               190000, clk = 0, rst_n = 1, data = 0114
Time =               195000, clk = 1, rst_n = 1, data = 013a
Time =               200000, clk = 0, rst_n = 1, data = 013a
Time =               205000, clk = 1, rst_n = 1, data = 0162
Time =               210000, clk = 0, rst_n = 1, data = 0162
Time =               215000, clk = 1, rst_n = 1, data = 018d
Time =               220000, clk = 0, rst_n = 0, data = 0000
Time =               225000, clk = 1, rst_n = 0, data = 0000
Time =               230000, clk = 0, rst_n = 1, data = 0000
Time =               235000, clk = 1, rst_n = 1, data = 01e9
Time =               240000, clk = 0, rst_n = 1, data = 01e9
Time =               245000, clk = 1, rst_n = 1, data = 0001
Time =               250000, clk = 0, rst_n = 1, data = 0001
Time =               255000, clk = 1, rst_n = 1, data = 0001
Time =               260000, clk = 0, rst_n = 1, data = 0001
Time =               265000, clk = 1, rst_n = 1, data = 0005
Time =               270000, clk = 0, rst_n = 1, data = 0005
Time =               275000, clk = 1, rst_n = 1, data = 000b
Time =               280000, clk = 0, rst_n = 1, data = 000b
Time =               285000, clk = 1, rst_n = 1, data = 0014
Time =               290000, clk = 0, rst_n = 1, data = 0014
Time =               295000, clk = 1, rst_n = 1, data = 001f
Time =               300000, clk = 0, rst_n = 1, data = 001f
Time =               